<svg width="40" height="40" viewBox="0 0 40 40" fill="none" xmlns="http://www.w3.org/2000/svg">
<rect x="0.5" y="0.5" width="39" height="39" rx="9.5" fill="#FCE363"/>
<path d="M24.8968 24.7158C26.0616 26.4779 23.2541 36.3936 19.9987 36.3936C15.9966 36.3936 13.9955 26.2688 15.0707 24.7158C15.668 23.8497 17.1315 25.6416 20.148 25.6416C22.9555 25.6416 24.2994 23.7899 24.8968 24.7158Z" fill="#010004"/>
<path d="M35.4098 22.0278C36.1266 22.207 36.6941 21.4603 36.1864 20.9825C35.4397 20.3254 34.1256 19.3099 31.796 19.3099C29.5262 19.3099 28.1224 20.3254 27.2563 21.0123C26.659 21.4902 27.2563 22.2966 28.0328 22.0875C29.0782 21.8187 30.4221 21.1617 31.8557 21.1617C33.2893 21.2214 34.5139 21.8187 35.4098 22.0278Z" fill="#010004"/>
<path d="M11.9946 22.0278C12.7114 22.207 13.2788 21.4603 12.7711 20.9825C12.0244 20.3254 10.7103 19.3099 8.38072 19.3099C6.11087 19.3099 4.70714 20.3254 3.84102 21.0123C3.24369 21.4902 3.84102 22.2966 4.61755 22.0875C5.66287 21.8187 7.00686 21.1617 8.44045 21.1617C9.90391 21.2214 11.0986 21.8187 11.9946 22.0278Z" fill="#010004"/>
<path d="M8.14172 31.5851C10.7644 31.5851 12.8905 29.8869 12.8905 27.7921C12.8905 25.6972 10.7644 23.999 8.14172 23.999C5.51904 23.999 3.39294 25.6972 3.39294 27.7921C3.39294 29.8869 5.51904 31.5851 8.14172 31.5851Z" fill="#FFF7BD"/>
<path d="M31.8557 31.5851C34.4784 31.5851 36.6045 29.8869 36.6045 27.7921C36.6045 25.6972 34.4784 23.999 31.8557 23.999C29.233 23.999 27.1069 25.6972 27.1069 27.7921C27.1069 29.8869 29.233 31.5851 31.8557 31.5851Z" fill="#FFF7BD"/>
<path d="M17.8782 18.862L7.12628 12.2316C6.49908 11.8433 6.49908 10.9175 7.12628 10.5292L17.8782 3.89886C19.1923 3.09247 20.835 3.09247 22.1491 3.89886L32.901 10.5292C33.5282 10.9175 33.5282 11.8433 32.901 12.2316L22.1491 18.862C20.835 19.6684 19.1625 19.6684 17.8782 18.862Z" fill="#FFF7BD"/>
<path d="M18.8936 34.8405C17.4899 33.7653 17.8782 29.9126 20.3571 29.4646C22.4477 29.0763 23.4333 29.7632 22.1192 32.5707C20.8051 35.4677 19.5507 35.3184 18.8936 34.8405Z" fill="#FEF5B8"/>
<rect x="0.5" y="0.5" width="39" height="39" rx="9.5" stroke="#EECF06"/>
</svg>
