<svg width="22" height="22" viewBox="0 0 22 22" fill="none" xmlns="http://www.w3.org/2000/svg">
    <path d="M14.6923 18.5H17.7692C18.4492 18.5 19 17.9886 19 17.3571V8.48489C19 8.14203 18.8346 7.81775 18.5485 7.6006L12.3446 2.88714C12.0146 2.63714 11.6015 2.5 11.1762 2.5H10.8246C10.3985 2.5 9.98539 2.63714 9.6554 2.88714L3.45154 7.6006C3.16538 7.81775 3 8.14203 3 8.48489V17.3571C3 17.9886 3.55076 18.5 4.23076 18.5H7.30766C7.64766 18.5 7.92304 18.2443 7.92304 17.9286V12.7857C7.92304 12.1543 8.4738 11.6428 9.1538 11.6428H12.8461C13.5261 11.6428 14.0768 12.1543 14.0768 12.7857V17.9286C14.0768 18.2443 14.3523 18.5 14.6923 18.5Z" fill="black"/>
    </svg>
    